%YAML 1.1
%TAG !u! tag:unity3d.com,2011:
--- !u!1001 &7270631135176730444
PrefabInstance:
  m_ObjectHideFlags: 0
  serializedVersion: 2
  m_Modification:
    m_TransformParent: {fileID: 0}
    m_Modifications:
    - target: {fileID: 1739753358494303349, guid: ded16471e795b2845bbb18b5cb02a136, type: 3}
      propertyPath: m_RootOrder
      value: 0
      objectReference: {fileID: 0}
    - target: {fileID: 1739753358494303349, guid: ded16471e795b2845bbb18b5cb02a136, type: 3}
      propertyPath: m_LocalPosition.x
      value: 0
      objectReference: {fileID: 0}
    - target: {fileID: 1739753358494303349, guid: ded16471e795b2845bbb18b5cb02a136, type: 3}
      propertyPath: m_LocalPosition.y
      value: 0
      objectReference: {fileID: 0}
    - target: {fileID: 1739753358494303349, guid: ded16471e795b2845bbb18b5cb02a136, type: 3}
      propertyPath: m_LocalPosition.z
      value: 0
      objectReference: {fileID: 0}
    - target: {fileID: 1739753358494303349, guid: ded16471e795b2845bbb18b5cb02a136, type: 3}
      propertyPath: m_LocalRotation.w
      value: 1
      objectReference: {fileID: 0}
    - target: {fileID: 1739753358494303349, guid: ded16471e795b2845bbb18b5cb02a136, type: 3}
      propertyPath: m_LocalRotation.x
      value: 0
      objectReference: {fileID: 0}
    - target: {fileID: 1739753358494303349, guid: ded16471e795b2845bbb18b5cb02a136, type: 3}
      propertyPath: m_LocalRotation.y
      value: 0
      objectReference: {fileID: 0}
    - target: {fileID: 1739753358494303349, guid: ded16471e795b2845bbb18b5cb02a136, type: 3}
      propertyPath: m_LocalRotation.z
      value: 0
      objectReference: {fileID: 0}
    - target: {fileID: 1739753358494303349, guid: ded16471e795b2845bbb18b5cb02a136, type: 3}
      propertyPath: m_LocalEulerAnglesHint.x
      value: 0
      objectReference: {fileID: 0}
    - target: {fileID: 1739753358494303349, guid: ded16471e795b2845bbb18b5cb02a136, type: 3}
      propertyPath: m_LocalEulerAnglesHint.y
      value: 0
      objectReference: {fileID: 0}
    - target: {fileID: 1739753358494303349, guid: ded16471e795b2845bbb18b5cb02a136, type: 3}
      propertyPath: m_LocalEulerAnglesHint.z
      value: 0
      objectReference: {fileID: 0}
    - target: {fileID: 6156604752660678921, guid: ded16471e795b2845bbb18b5cb02a136, type: 3}
      propertyPath: m_Name
      value: ID
      objectReference: {fileID: 0}
    m_RemovedComponents: []
  m_SourcePrefab: {fileID: 100100000, guid: ded16471e795b2845bbb18b5cb02a136, type: 3}
