{
    "name": "Controls",
    "maps": [
        {
            "name": "InGame",
            "id": "2ab23176-0665-40f6-a2ba-2145363ac149",
            "actions": [
                {
                    "name": "Jump",
                    "type": "Button",
                    "id": "e3cef486-2888-462b-9cfe-21c2968195fa",
                    "expectedControlType": "Button",
                    "processors": "",
                    "interactions": "",
                    "initialStateCheck": false
                },
                {
                    "name": "Aim",
                    "type": "Value",
                    "id": "e8b8c10a-2ad1-40c3-9d6f-a1e712f8eb08",
                    "expectedControlType": "Vector2",
                    "processors": "",
                    "interactions": "",
                    "initialStateCheck": true
                },
                {
                    "name": "Debug",
                    "type": "Button",
                    "id": "89dfea65-b0af-4161-b1a4-51d357cd27d5",
                    "expectedControlType": "Button",
                    "processors": "",
                    "interactions": "",
                    "initialStateCheck": false
                }
            ],
            "bindings": [
                {
                    "name": "",
                    "id": "86692cc5-8714-4242-bf94-4be14d2a0e0a",
                    "path": "<Keyboard>/space",
                    "interactions": "",
                    "processors": "",
                    "groups": "KBM",
                    "action": "Jump",
                    "isComposite": false,
                    "isPartOfComposite": false
                },
                {
                    "name": "",
                    "id": "bd18b601-4cb5-46ef-85d4-62eea9eb9a94",
                    "path": "<Gamepad>/buttonSouth",
                    "interactions": "",
                    "processors": "",
                    "groups": "KBM",
                    "action": "Jump",
                    "isComposite": false,
                    "isPartOfComposite": false
                },
                {
                    "name": "2D Vector",
                    "id": "56636ee1-b6eb-4a75-88aa-9d820c2a58ce",
                    "path": "2DVector",
                    "interactions": "",
                    "processors": "",
                    "groups": "",
                    "action": "Aim",
                    "isComposite": true,
                    "isPartOfComposite": false
                },
                {
                    "name": "up",
                    "id": "f16866ef-0c61-4c0d-b2ac-04d1d5876ae7",
                    "path": "<Keyboard>/w",
                    "interactions": "",
                    "processors": "",
                    "groups": "",
                    "action": "Aim",
                    "isComposite": false,
                    "isPartOfComposite": true
                },
                {
                    "name": "down",
                    "id": "f304d3ed-92b6-4f18-b757-21b9714164a3",
                    "path": "<Keyboard>/s",
                    "interactions": "",
                    "processors": "",
                    "groups": "",
                    "action": "Aim",
                    "isComposite": false,
                    "isPartOfComposite": true
                },
                {
                    "name": "left",
                    "id": "ab7b3b13-0736-4ebd-96c7-afaea3c9ee94",
                    "path": "<Keyboard>/a",
                    "interactions": "",
                    "processors": "",
                    "groups": "",
                    "action": "Aim",
                    "isComposite": false,
                    "isPartOfComposite": true
                },
                {
                    "name": "right",
                    "id": "d1b749a8-f171-489a-8f08-39eb18059dbd",
                    "path": "<Keyboard>/d",
                    "interactions": "",
                    "processors": "",
                    "groups": "",
                    "action": "Aim",
                    "isComposite": false,
                    "isPartOfComposite": true
                },
                {
                    "name": "",
                    "id": "936df0f6-e6e8-48c9-863d-5f7185fdd503",
                    "path": "<Keyboard>/f12",
                    "interactions": "",
                    "processors": "",
                    "groups": "KBM",
                    "action": "Debug",
                    "isComposite": false,
                    "isPartOfComposite": false
                }
            ]
        }
    ],
    "controlSchemes": [
        {
            "name": "KBM",
            "bindingGroup": "KBM",
            "devices": [
                {
                    "devicePath": "<Keyboard>",
                    "isOptional": false,
                    "isOR": false
                },
                {
                    "devicePath": "<Mouse>",
                    "isOptional": false,
                    "isOR": false
                },
                {
                    "devicePath": "<Gamepad>",
                    "isOptional": true,
                    "isOR": false
                }
            ]
        }
    ]
}