%YAML 1.1
%TAG !u! tag:unity3d.com,2011:
--- !u!114 &11400000
MonoBehaviour:
  m_ObjectHideFlags: 0
  m_CorrespondingSourceObject: {fileID: 0}
  m_PrefabInstance: {fileID: 0}
  m_PrefabAsset: {fileID: 0}
  m_GameObject: {fileID: 0}
  m_Enabled: 1
  m_EditorHideFlags: 0
  m_Script: {fileID: 11500000, guid: db18bdfe81a11894994fa0c26e242423, type: 3}
  m_Name: PlayerSM
  m_EditorClassIdentifier: 
  playerDataTemplate: {fileID: 11400000, guid: 17e1ea0f68859d448bbfdf4c2e24c2af, type: 2}
  goalPrefab: {fileID: 6972389221073456531, guid: 5fbcdb579ccfa124986cde2927c3fcdb, type: 3}
  playerData: {fileID: 11400000, guid: 9911eb762f7436f48b8b93bb52128b0e, type: 2}
  isJumping: 0
  currentState: 1
  jumpRequested: 0
  jumpReleased: 1
  jumpTime: 0.18365361
  jumpForgivenessTimer: 0
  wallKickTime: 27.457676
  walled: 0
  grounded: 1
  groundedCooldown: 0
  reverse: 0
  runner: {fileID: 0}
